Practica1/Objetivo5/alu.vcd
$date
	Tue Oct 24 19:40:14 2023
$end
$version
	Icarus Verilog
$end
$timescale
	10ps
$end
$scope module alu_tb $end
$var wire 1 ! t_z $end
$var wire 1 " t_s $end
$var wire 1 # t_c $end
$var wire 4 $ t_R [3:0] $end
$var reg 1 % error $end
$var reg 1 & error_R $end
$var reg 1 ' error_c $end
$var reg 1 ( error_s $end
$var reg 1 ) error_z $end
$var reg 4 * t_A [3:0] $end
$var reg 4 + t_B [3:0] $end
$var reg 2 , t_Op [1:0] $end
$var reg 1 - t_cin $end
$var reg 1 . t_l $end
$var integer 32 / errores [31:0] $end
$scope module mat $end
$var wire 4 0 A [3:0] $end
$var wire 2 1 ALUOP [1:0] $end
$var wire 4 2 B [3:0] $end
$var wire 1 - c_in $end
$var wire 1 3 cpl $end
$var wire 1 . l $end
$var wire 1 4 op1_A $end
$var wire 1 5 op2_B $end
$var wire 1 ! zero $end
$var wire 4 6 ul4_to_end [3:0] $end
$var wire 4 7 sum4_to_end [3:0] $end
$var wire 1 " sign $end
$var wire 4 8 op2_B_to_cpl [3:0] $end
$var wire 1 # c_out $end
$var wire 4 9 add1_to_op1_A [3:0] $end
$var wire 1 : add1 $end
$var wire 4 ; R [3:0] $end
$var wire 4 < OP2 [3:0] $end
$var wire 4 = OP1 [3:0] $end
$scope module alucinogeno $end
$var wire 2 > S [1:0] $end
$var wire 4 ? Out [3:0] $end
$var wire 4 @ B [3:0] $end
$var wire 4 A A [3:0] $end
$scope module celda0 $end
$var wire 2 B S [1:0] $end
$var wire 1 C a $end
$var wire 1 D b $end
$var wire 1 E cand $end
$var wire 1 F cnot $end
$var wire 1 G cor $end
$var wire 1 H cxor $end
$var wire 1 I out $end
$scope module mux $end
$var wire 2 J S [1:0] $end
$var wire 1 E a $end
$var wire 1 G b $end
$var wire 1 H c $end
$var wire 1 F d $end
$var reg 1 I out $end
$upscope $end
$upscope $end
$scope module celda1 $end
$var wire 2 K S [1:0] $end
$var wire 1 L a $end
$var wire 1 M b $end
$var wire 1 N cand $end
$var wire 1 O cnot $end
$var wire 1 P cor $end
$var wire 1 Q cxor $end
$var wire 1 R out $end
$scope module mux $end
$var wire 2 S S [1:0] $end
$var wire 1 N a $end
$var wire 1 P b $end
$var wire 1 Q c $end
$var wire 1 O d $end
$var reg 1 R out $end
$upscope $end
$upscope $end
$scope module celda2 $end
$var wire 2 T S [1:0] $end
$var wire 1 U a $end
$var wire 1 V b $end
$var wire 1 W cand $end
$var wire 1 X cnot $end
$var wire 1 Y cor $end
$var wire 1 Z cxor $end
$var wire 1 [ out $end
$scope module mux $end
$var wire 2 \ S [1:0] $end
$var wire 1 W a $end
$var wire 1 Y b $end
$var wire 1 Z c $end
$var wire 1 X d $end
$var reg 1 [ out $end
$upscope $end
$upscope $end
$scope module celda3 $end
$var wire 2 ] S [1:0] $end
$var wire 1 ^ a $end
$var wire 1 _ b $end
$var wire 1 ` cand $end
$var wire 1 a cnot $end
$var wire 1 b cor $end
$var wire 1 c cxor $end
$var wire 1 d out $end
$scope module mux $end
$var wire 2 e S [1:0] $end
$var wire 1 ` a $end
$var wire 1 b b $end
$var wire 1 c c $end
$var wire 1 a d $end
$var reg 1 d out $end
$upscope $end
$upscope $end
$upscope $end
$scope module compl1 $end
$var wire 1 3 cpl $end
$var wire 4 f oscuro [3:0] $end
$var wire 4 g Out [3:0] $end
$var wire 4 h Inp [3:0] $end
$upscope $end
$scope module mux_add1 $end
$var wire 4 i A [3:0] $end
$var wire 4 j B [3:0] $end
$var wire 1 : s $end
$var wire 4 k Out [3:0] $end
$upscope $end
$scope module mux_l $end
$var wire 4 l B [3:0] $end
$var wire 1 . s $end
$var wire 4 m Out [3:0] $end
$var wire 4 n A [3:0] $end
$upscope $end
$scope module mux_op1_a $end
$var wire 4 o A [3:0] $end
$var wire 4 p B [3:0] $end
$var wire 1 4 s $end
$var wire 4 q Out [3:0] $end
$upscope $end
$scope module mux_op2_b $end
$var wire 4 r A [3:0] $end
$var wire 4 s B [3:0] $end
$var wire 1 5 s $end
$var wire 4 t Out [3:0] $end
$upscope $end
$scope module sum5 $end
$var wire 4 u A [3:0] $end
$var wire 4 v B [3:0] $end
$var wire 1 - c_in $end
$var wire 1 # c_out $end
$var wire 3 w c [2:0] $end
$var wire 4 x S [3:0] $end
$scope module Fo $end
$var wire 1 y a $end
$var wire 1 z b $end
$var wire 1 - c_in $end
$var wire 1 { c_out $end
$var wire 1 | sum1 $end
$var wire 1 } sum $end
$var wire 1 ~ c2 $end
$var wire 1 !" c1 $end
$upscope $end
$scope module Folun $end
$var wire 1 "" a $end
$var wire 1 #" b $end
$var wire 1 $" c_in $end
$var wire 1 %" c_out $end
$var wire 1 &" sum1 $end
$var wire 1 '" sum $end
$var wire 1 (" c2 $end
$var wire 1 )" c1 $end
$upscope $end
$scope module Foluncu $end
$var wire 1 *" a $end
$var wire 1 +" b $end
$var wire 1 ," c_in $end
$var wire 1 -" c_out $end
$var wire 1 ." sum1 $end
$var wire 1 /" sum $end
$var wire 1 0" c2 $end
$var wire 1 1" c1 $end
$upscope $end
$scope module Folunculo $end
$var wire 1 2" a $end
$var wire 1 3" b $end
$var wire 1 4" c_in $end
$var wire 1 # c_out $end
$var wire 1 5" sum1 $end
$var wire 1 6" sum $end
$var wire 1 7" c2 $end
$var wire 1 8" c1 $end
$upscope $end
$upscope $end
$upscope $end
$scope task check $end
$var reg 5 9" expected_R [4:0] $end
$var reg 1 :" expected_c $end
$var reg 1 ;" expected_s $end
$var reg 1 <" expected_z $end
$upscope $end
$upscope $end
$enddefinitions $end
#0
$dumpvars
x<"
x;"
x:"
bx 9"
08"
07"
06"
05"
04"
03"
02"
01"
00"
0/"
0."
0-"
0,"
0+"
0*"
0)"
0("
0'"
0&"
0%"
0$"
0#"
0""
0!"
0~
0}
0|
0{
0z
0y
b0 x
b0 w
b0 v
b0 u
b0 t
b0 s
b0 r
b0 q
b0 p
b0 o
b0 n
b0 m
b0 l
b0 k
b1 j
b0 i
b0 h
b0 g
b1111 f
b0 e
0d
0c
0b
1a
0`
0_
0^
b0 ]
b0 \
0[
0Z
0Y
1X
0W
0V
0U
b0 T
b0 S
0R
0Q
0P
1O
0N
0M
0L
b0 K
b0 J
0I
0H
0G
1F
0E
0D
0C
b0 B
b0 A
b0 @
b0 ?
b0 >
b0 =
b0 <
b0 ;
0:
b0 9
b0 8
b0 7
b0 6
05
04
03
b0 2
b0 1
b0 0
b0 /
0.
0-
b0 ,
b0 +
b0 *
x)
x(
x'
x&
x%
b0 $
0#
0"
1!
$end
#1
0%
0)
0&
1<"
0'
0(
0;"
0:"
b0 9"
#1000
b1 +
b1 2
b1 s
#2000
b10 +
b10 2
b10 s
#3000
b11 +
b11 2
b11 s
#4000
b100 +
b100 2
b100 s
#5000
b101 +
b101 2
b101 s
#6000
b110 +
b110 2
b110 s
#7000
b111 +
b111 2
b111 s
#8000
b1000 +
b1000 2
b1000 s
#9000
b1001 +
b1001 2
b1001 s
#10000
b1010 +
b1010 2
b1010 s
#11000
b1011 +
b1011 2
b1011 s
#12000
b1100 +
b1100 2
b1100 s
#13000
b1101 +
b1101 2
b1101 s
#14000
b1110 +
b1110 2
b1110 s
#15000
b1111 +
b1111 2
b1111 s
#16000
0!
b1 $
b1 ;
b1 m
b1 7
b1 n
b1 x
1}
1|
1G
1H
1z
1D
b1110 f
b1 <
b1 @
b1 g
b1 v
b1 8
b1 h
b1 t
b1 *
b1 0
b1 p
b1 r
b0 +
b0 2
b0 s
#16001
0<"
b1 9"
#17000
b1 +
b1 2
b1 s
#18000
b10 +
b10 2
b10 s
#19000
b11 +
b11 2
b11 s
#20000
b100 +
b100 2
b100 s
#21000
b101 +
b101 2
b101 s
#22000
b110 +
b110 2
b110 s
#23000
b111 +
b111 2
b111 s
#24000
b1000 +
b1000 2
b1000 s
#25000
b1001 +
b1001 2
b1001 s
#26000
b1010 +
b1010 2
b1010 s
#27000
b1011 +
b1011 2
b1011 s
#28000
b1100 +
b1100 2
b1100 s
#29000
b1101 +
b1101 2
b1101 s
#30000
b1110 +
b1110 2
b1110 s
#31000
b1111 +
b1111 2
b1111 s
#32000
b10 $
b10 ;
b10 m
0}
b10 7
b10 n
b10 x
1'"
0|
1&"
1P
1Q
0G
0H
0z
1#"
1M
0D
b1101 f
b10 <
b10 @
b10 g
b10 v
b10 8
b10 h
b10 t
b10 *
b10 0
b10 p
b10 r
b0 +
b0 2
b0 s
#32001
b10 9"
#33000
b1 +
b1 2
b1 s
#34000
b10 +
b10 2
b10 s
#35000
b11 +
b11 2
b11 s
#36000
b100 +
b100 2
b100 s
#37000
b101 +
b101 2
b101 s
#38000
b110 +
b110 2
b110 s
#39000
b111 +
b111 2
b111 s
#40000
b1000 +
b1000 2
b1000 s
#41000
b1001 +
b1001 2
b1001 s
#42000
b1010 +
b1010 2
b1010 s
#43000
b1011 +
b1011 2
b1011 s
#44000
b1100 +
b1100 2
b1100 s
#45000
b1101 +
b1101 2
b1101 s
#46000
b1110 +
b1110 2
b1110 s
#47000
b1111 +
b1111 2
b1111 s
#48000
b11 $
b11 ;
b11 m
b11 7
b11 n
b11 x
1}
1|
1G
1H
1z
1D
b1100 f
b11 <
b11 @
b11 g
b11 v
b11 8
b11 h
b11 t
b11 *
b11 0
b11 p
b11 r
b0 +
b0 2
b0 s
#48001
b11 9"
#49000
b1 +
b1 2
b1 s
#50000
b10 +
b10 2
b10 s
#51000
b11 +
b11 2
b11 s
#52000
b100 +
b100 2
b100 s
#53000
b101 +
b101 2
b101 s
#54000
b110 +
b110 2
b110 s
#55000
b111 +
b111 2
b111 s
#56000
b1000 +
b1000 2
b1000 s
#57000
b1001 +
b1001 2
b1001 s
#58000
b1010 +
b1010 2
b1010 s
#59000
b1011 +
b1011 2
b1011 s
#60000
b1100 +
b1100 2
b1100 s
#61000
b1101 +
b1101 2
b1101 s
#62000
b1110 +
b1110 2
b1110 s
#63000
b1111 +
b1111 2
b1111 s
#64000
b100 $
b100 ;
b100 m
0}
0'"
b100 7
b100 n
b100 x
1/"
0|
0&"
1."
1Y
1Z
0P
0Q
0G
0H
0z
0#"
1+"
1V
0M
0D
b1011 f
b100 <
b100 @
b100 g
b100 v
b100 8
b100 h
b100 t
b100 *
b100 0
b100 p
b100 r
b0 +
b0 2
b0 s
#64001
b100 9"
#65000
b1 +
b1 2
b1 s
#66000
b10 +
b10 2
b10 s
#67000
b11 +
b11 2
b11 s
#68000
b100 +
b100 2
b100 s
#69000
b101 +
b101 2
b101 s
#70000
b110 +
b110 2
b110 s
#71000
b111 +
b111 2
b111 s
#72000
b1000 +
b1000 2
b1000 s
#73000
b1001 +
b1001 2
b1001 s
#74000
b1010 +
b1010 2
b1010 s
#75000
b1011 +
b1011 2
b1011 s
#76000
b1100 +
b1100 2
b1100 s
#77000
b1101 +
b1101 2
b1101 s
#78000
b1110 +
b1110 2
b1110 s
#79000
b1111 +
b1111 2
b1111 s
#80000
b101 $
b101 ;
b101 m
b101 7
b101 n
b101 x
1}
1|
1G
1H
1z
1D
b1010 f
b101 <
b101 @
b101 g
b101 v
b101 8
b101 h
b101 t
b101 *
b101 0
b101 p
b101 r
b0 +
b0 2
b0 s
#80001
b101 9"
#81000
b1 +
b1 2
b1 s
#82000
b10 +
b10 2
b10 s
#83000
b11 +
b11 2
b11 s
#84000
b100 +
b100 2
b100 s
#85000
b101 +
b101 2
b101 s
#86000
b110 +
b110 2
b110 s
#87000
b111 +
b111 2
b111 s
#88000
b1000 +
b1000 2
b1000 s
#89000
b1001 +
b1001 2
b1001 s
#90000
b1010 +
b1010 2
b1010 s
#91000
b1011 +
b1011 2
b1011 s
#92000
b1100 +
b1100 2
b1100 s
#93000
b1101 +
b1101 2
b1101 s
#94000
b1110 +
b1110 2
b1110 s
#95000
b1111 +
b1111 2
b1111 s
#96000
b110 $
b110 ;
b110 m
0}
b110 7
b110 n
b110 x
1'"
0|
1&"
1P
1Q
0G
0H
0z
1#"
1M
0D
b1001 f
b110 <
b110 @
b110 g
b110 v
b110 8
b110 h
b110 t
b110 *
b110 0
b110 p
b110 r
b0 +
b0 2
b0 s
#96001
b110 9"
#97000
b1 +
b1 2
b1 s
#98000
b10 +
b10 2
b10 s
#99000
b11 +
b11 2
b11 s
#100000
b100 +
b100 2
b100 s
#101000
b101 +
b101 2
b101 s
#102000
b110 +
b110 2
b110 s
#103000
b111 +
b111 2
b111 s
#104000
b1000 +
b1000 2
b1000 s
#105000
b1001 +
b1001 2
b1001 s
#106000
b1010 +
b1010 2
b1010 s
#107000
b1011 +
b1011 2
b1011 s
#108000
b1100 +
b1100 2
b1100 s
#109000
b1101 +
b1101 2
b1101 s
#110000
b1110 +
b1110 2
b1110 s
#111000
b1111 +
b1111 2
b1111 s
#112000
b111 $
b111 ;
b111 m
b111 7
b111 n
b111 x
1}
1|
1G
1H
1z
1D
b1000 f
b111 <
b111 @
b111 g
b111 v
b111 8
b111 h
b111 t
b111 *
b111 0
b111 p
b111 r
b0 +
b0 2
b0 s
#112001
b111 9"
#113000
b1 +
b1 2
b1 s
#114000
b10 +
b10 2
b10 s
#115000
b11 +
b11 2
b11 s
#116000
b100 +
b100 2
b100 s
#117000
b101 +
b101 2
b101 s
#118000
b110 +
b110 2
b110 s
#119000
b111 +
b111 2
b111 s
#120000
b1000 +
b1000 2
b1000 s
#121000
b1001 +
b1001 2
b1001 s
#122000
b1010 +
b1010 2
b1010 s
#123000
b1011 +
b1011 2
b1011 s
#124000
b1100 +
b1100 2
b1100 s
#125000
b1101 +
b1101 2
b1101 s
#126000
b1110 +
b1110 2
b1110 s
#127000
b1111 +
b1111 2
b1111 s
#128000
1"
b1000 $
b1000 ;
b1000 m
0}
0'"
0/"
b1000 7
b1000 n
b1000 x
16"
0|
0&"
0."
15"
1b
1c
0Y
0Z
0P
0Q
0G
0H
0z
0#"
0+"
13"
1_
0V
0M
0D
b111 f
b1000 <
b1000 @
b1000 g
b1000 v
b1000 8
b1000 h
b1000 t
b1000 *
b1000 0
b1000 p
b1000 r
b0 +
b0 2
b0 s
#128001
1;"
b1000 9"
#129000
b1 +
b1 2
b1 s
#130000
b10 +
b10 2
b10 s
#131000
b11 +
b11 2
b11 s
#132000
b100 +
b100 2
b100 s
#133000
b101 +
b101 2
b101 s
#134000
b110 +
b110 2
b110 s
#135000
b111 +
b111 2
b111 s
#136000
b1000 +
b1000 2
b1000 s
#137000
b1001 +
b1001 2
b1001 s
#138000
b1010 +
b1010 2
b1010 s
#139000
b1011 +
b1011 2
b1011 s
#140000
b1100 +
b1100 2
b1100 s
#141000
b1101 +
b1101 2
b1101 s
#142000
b1110 +
b1110 2
b1110 s
#143000
b1111 +
b1111 2
b1111 s
#144000
b1001 $
b1001 ;
b1001 m
b1001 7
b1001 n
b1001 x
1}
1|
1G
1H
1z
1D
b110 f
b1001 <
b1001 @
b1001 g
b1001 v
b1001 8
b1001 h
b1001 t
b1001 *
b1001 0
b1001 p
b1001 r
b0 +
b0 2
b0 s
#144001
b1001 9"
#145000
b1 +
b1 2
b1 s
#146000
b10 +
b10 2
b10 s
#147000
b11 +
b11 2
b11 s
#148000
b100 +
b100 2
b100 s
#149000
b101 +
b101 2
b101 s
#150000
b110 +
b110 2
b110 s
#151000
b111 +
b111 2
b111 s
#152000
b1000 +
b1000 2
b1000 s
#153000
b1001 +
b1001 2
b1001 s
#154000
b1010 +
b1010 2
b1010 s
#155000
b1011 +
b1011 2
b1011 s
#156000
b1100 +
b1100 2
b1100 s
#157000
b1101 +
b1101 2
b1101 s
#158000
b1110 +
b1110 2
b1110 s
#159000
b1111 +
b1111 2
b1111 s
#160000
b1010 $
b1010 ;
b1010 m
0}
b1010 7
b1010 n
b1010 x
1'"
0|
1&"
1P
1Q
0G
0H
0z
1#"
1M
0D
b101 f
b1010 <
b1010 @
b1010 g
b1010 v
b1010 8
b1010 h
b1010 t
b1010 *
b1010 0
b1010 p
b1010 r
b0 +
b0 2
b0 s
#160001
b1010 9"
#161000
b1 +
b1 2
b1 s
#162000
b10 +
b10 2
b10 s
#163000
b11 +
b11 2
b11 s
#164000
b100 +
b100 2
b100 s
#165000
b101 +
b101 2
b101 s
#166000
b110 +
b110 2
b110 s
#167000
b111 +
b111 2
b111 s
#168000
b1000 +
b1000 2
b1000 s
#169000
b1001 +
b1001 2
b1001 s
#170000
b1010 +
b1010 2
b1010 s
#171000
b1011 +
b1011 2
b1011 s
#172000
b1100 +
b1100 2
b1100 s
#173000
b1101 +
b1101 2
b1101 s
#174000
b1110 +
b1110 2
b1110 s
#175000
b1111 +
b1111 2
b1111 s
#176000
b1011 $
b1011 ;
b1011 m
b1011 7
b1011 n
b1011 x
1}
1|
1G
1H
1z
1D
b100 f
b1011 <
b1011 @
b1011 g
b1011 v
b1011 8
b1011 h
b1011 t
b1011 *
b1011 0
b1011 p
b1011 r
b0 +
b0 2
b0 s
#176001
b1011 9"
#177000
b1 +
b1 2
b1 s
#178000
b10 +
b10 2
b10 s
#179000
b11 +
b11 2
b11 s
#180000
b100 +
b100 2
b100 s
#181000
b101 +
b101 2
b101 s
#182000
b110 +
b110 2
b110 s
#183000
b111 +
b111 2
b111 s
#184000
b1000 +
b1000 2
b1000 s
#185000
b1001 +
b1001 2
b1001 s
#186000
b1010 +
b1010 2
b1010 s
#187000
b1011 +
b1011 2
b1011 s
#188000
b1100 +
b1100 2
b1100 s
#189000
b1101 +
b1101 2
b1101 s
#190000
b1110 +
b1110 2
b1110 s
#191000
b1111 +
b1111 2
b1111 s
#192000
b1100 $
b1100 ;
b1100 m
0}
0'"
b1100 7
b1100 n
b1100 x
1/"
0|
0&"
1."
1Y
1Z
0P
0Q
0G
0H
0z
0#"
1+"
1V
0M
0D
b11 f
b1100 <
b1100 @
b1100 g
b1100 v
b1100 8
b1100 h
b1100 t
b1100 *
b1100 0
b1100 p
b1100 r
b0 +
b0 2
b0 s
#192001
b1100 9"
#193000
b1 +
b1 2
b1 s
#194000
b10 +
b10 2
b10 s
#195000
b11 +
b11 2
b11 s
#196000
b100 +
b100 2
b100 s
#197000
b101 +
b101 2
b101 s
#198000
b110 +
b110 2
b110 s
#199000
b111 +
b111 2
b111 s
#200000
b1000 +
b1000 2
b1000 s
#201000
b1001 +
b1001 2
b1001 s
#202000
b1010 +
b1010 2
b1010 s
#203000
b1011 +
b1011 2
b1011 s
#204000
b1100 +
b1100 2
b1100 s
#205000
b1101 +
b1101 2
b1101 s
#206000
b1110 +
b1110 2
b1110 s
#207000
b1111 +
b1111 2
b1111 s
#208000
b1101 $
b1101 ;
b1101 m
b1101 7
b1101 n
b1101 x
1}
1|
1G
1H
1z
1D
b10 f
b1101 <
b1101 @
b1101 g
b1101 v
b1101 8
b1101 h
b1101 t
b1101 *
b1101 0
b1101 p
b1101 r
b0 +
b0 2
b0 s
#208001
b1101 9"
#209000
b1 +
b1 2
b1 s
#210000
b10 +
b10 2
b10 s
#211000
b11 +
b11 2
b11 s
#212000
b100 +
b100 2
b100 s
#213000
b101 +
b101 2
b101 s
#214000
b110 +
b110 2
b110 s
#215000
b111 +
b111 2
b111 s
#216000
b1000 +
b1000 2
b1000 s
#217000
b1001 +
b1001 2
b1001 s
#218000
b1010 +
b1010 2
b1010 s
#219000
b1011 +
b1011 2
b1011 s
#220000
b1100 +
b1100 2
b1100 s
#221000
b1101 +
b1101 2
b1101 s
#222000
b1110 +
b1110 2
b1110 s
#223000
b1111 +
b1111 2
b1111 s
#224000
b1110 $
b1110 ;
b1110 m
0}
b1110 7
b1110 n
b1110 x
1'"
0|
1&"
1P
1Q
0G
0H
0z
1#"
1M
0D
b1 f
b1110 <
b1110 @
b1110 g
b1110 v
b1110 8
b1110 h
b1110 t
b1110 *
b1110 0
b1110 p
b1110 r
b0 +
b0 2
b0 s
#224001
b1110 9"
#225000
b1 +
b1 2
b1 s
#226000
b10 +
b10 2
b10 s
#227000
b11 +
b11 2
b11 s
#228000
b100 +
b100 2
b100 s
#229000
b101 +
b101 2
b101 s
#230000
b110 +
b110 2
b110 s
#231000
b111 +
b111 2
b111 s
#232000
b1000 +
b1000 2
b1000 s
#233000
b1001 +
b1001 2
b1001 s
#234000
b1010 +
b1010 2
b1010 s
#235000
b1011 +
b1011 2
b1011 s
#236000
b1100 +
b1100 2
b1100 s
#237000
b1101 +
b1101 2
b1101 s
#238000
b1110 +
b1110 2
b1110 s
#239000
b1111 +
b1111 2
b1111 s
#240000
b1111 $
b1111 ;
b1111 m
b1111 7
b1111 n
b1111 x
1}
1|
1G
1H
1z
1D
b0 f
b1111 <
b1111 @
b1111 g
b1111 v
b1111 8
b1111 h
b1111 t
b1111 *
b1111 0
b1111 p
b1111 r
b0 +
b0 2
b0 s
#240001
b1111 9"
#241000
b1 +
b1 2
b1 s
#242000
b10 +
b10 2
b10 s
#243000
b11 +
b11 2
b11 s
#244000
b100 +
b100 2
b100 s
#245000
b101 +
b101 2
b101 s
#246000
b110 +
b110 2
b110 s
#247000
b111 +
b111 2
b111 s
#248000
b1000 +
b1000 2
b1000 s
#249000
b1001 +
b1001 2
b1001 s
#250000
b1010 +
b1010 2
b1010 s
#251000
b1011 +
b1011 2
b1011 s
#252000
b1100 +
b1100 2
b1100 s
#253000
b1101 +
b1101 2
b1101 s
#254000
b1110 +
b1110 2
b1110 s
#255000
b1111 +
b1111 2
b1111 s
#256000
0'"
0"
0/"
06"
0|
0&"
0."
05"
0b
0c
0Y
0Z
0P
0Q
0G
0H
0$"
0z
0#"
0+"
03"
0_
0V
0M
0D
b1111 f
b1 $
b1 ;
b1 m
b0 w
0{
b0 <
b0 @
b0 g
b0 v
b1 7
b1 n
b1 x
1}
0~
b0 8
b0 h
b0 t
1-
b0 *
b0 0
b0 p
b0 r
b0 +
b0 2
b0 s
#256001
0;"
b1 9"
#257000
b1 +
b1 2
b1 s
#258000
b10 +
b10 2
b10 s
#259000
b11 +
b11 2
b11 s
#260000
b100 +
b100 2
b100 s
#261000
b101 +
b101 2
b101 s
#262000
b110 +
b110 2
b110 s
#263000
b111 +
b111 2
b111 s
#264000
b1000 +
b1000 2
b1000 s
#265000
b1001 +
b1001 2
b1001 s
#266000
b1010 +
b1010 2
b1010 s
#267000
b1011 +
b1011 2
b1011 s
#268000
b1100 +
b1100 2
b1100 s
#269000
b1101 +
b1101 2
b1101 s
#270000
b1110 +
b1110 2
b1110 s
#271000
b1111 +
b1111 2
b1111 s
#272000
1'"
0!
1$"
b10 $
b10 ;
b10 m
b1 w
1{
b10 7
b10 n
b10 x
0}
1~
1|
1G
1H
1z
1D
b1110 f
b1 <
b1 @
b1 g
b1 v
b1 8
b1 h
b1 t
b1 *
b1 0
b1 p
b1 r
b0 +
b0 2
b0 s
#272001
b10 9"
#273000
b1 +
b1 2
b1 s
#274000
b10 +
b10 2
b10 s
#275000
b11 +
b11 2
b11 s
#276000
b100 +
b100 2
b100 s
#277000
b101 +
b101 2
b101 s
#278000
b110 +
b110 2
b110 s
#279000
b111 +
b111 2
b111 s
#280000
b1000 +
b1000 2
b1000 s
#281000
b1001 +
b1001 2
b1001 s
#282000
b1010 +
b1010 2
b1010 s
#283000
b1011 +
b1011 2
b1011 s
#284000
b1100 +
b1100 2
b1100 s
#285000
b1101 +
b1101 2
b1101 s
#286000
b1110 +
b1110 2
b1110 s
#287000
b1111 +
b1111 2
b1111 s
#288000
0/"
0$"
0,"
0{
b11 $
b11 ;
b11 m
b0 w
0%"
1}
0~
b11 7
b11 n
b11 x
1'"
0("
0|
1&"
1P
1Q
0G
0H
0z
1#"
1M
0D
b1101 f
b10 <
b10 @
b10 g
b10 v
b10 8
b10 h
b10 t
b10 *
b10 0
b10 p
b10 r
b0 +
b0 2
b0 s
#288001
b11 9"
#289000
b1 +
b1 2
b1 s
#290000
b10 +
b10 2
b10 s
#291000
b11 +
b11 2
b11 s
#292000
b100 +
b100 2
b100 s
#293000
b101 +
b101 2
b101 s
#294000
b110 +
b110 2
b110 s
#295000
b111 +
b111 2
b111 s
#296000
b1000 +
b1000 2
b1000 s
#297000
b1001 +
b1001 2
b1001 s
#298000
b1010 +
b1010 2
b1010 s
#299000
b1011 +
b1011 2
b1011 s
#300000
b1100 +
b1100 2
b1100 s
#301000
b1101 +
b1101 2
b1101 s
#302000
b1110 +
b1110 2
b1110 s
#303000
b1111 +
b1111 2
b1111 s
#304000
1/"
0!
1,"
1%"
0'"
1("
1$"
b100 $
b100 ;
b100 m
b11 w
1{
b100 7
b100 n
b100 x
0}
1~
1|
1G
1H
1z
1D
b1100 f
b11 <
b11 @
b11 g
b11 v
b11 8
b11 h
b11 t
b11 *
b11 0
b11 p
b11 r
b0 +
b0 2
b0 s
#304001
b100 9"
#305000
b1 +
b1 2
b1 s
#306000
b10 +
b10 2
b10 s
#307000
b11 +
b11 2
b11 s
#308000
b100 +
b100 2
b100 s
#309000
b101 +
b101 2
b101 s
#310000
b110 +
b110 2
b110 s
#311000
b111 +
b111 2
b111 s
#312000
b1000 +
b1000 2
b1000 s
#313000
b1001 +
b1001 2
b1001 s
#314000
b1010 +
b1010 2
b1010 s
#315000
b1011 +
b1011 2
b1011 s
#316000
b1100 +
b1100 2
b1100 s
#317000
b1101 +
b1101 2
b1101 s
#318000
b1110 +
b1110 2
b1110 s
#319000
b1111 +
b1111 2
b1111 s
#320000
0"
06"
0$"
0,"
04"
0{
0%"
b101 $
b101 ;
b101 m
b0 w
0-"
1}
0~
0'"
0("
b101 7
b101 n
b101 x
1/"
00"
0|
0&"
1."
1Y
1Z
0P
0Q
0G
0H
0z
0#"
1+"
1V
0M
0D
b1011 f
b100 <
b100 @
b100 g
b100 v
b100 8
b100 h
b100 t
b100 *
b100 0
b100 p
b100 r
b0 +
b0 2
b0 s
#320001
b101 9"
#321000
b1 +
b1 2
b1 s
#322000
b10 +
b10 2
b10 s
#323000
b11 +
b11 2
b11 s
#324000
b100 +
b100 2
b100 s
#325000
b101 +
b101 2
b101 s
#326000
b110 +
b110 2
b110 s
#327000
b111 +
b111 2
b111 s
#328000
b1000 +
b1000 2
b1000 s
#329000
b1001 +
b1001 2
b1001 s
#330000
b1010 +
b1010 2
b1010 s
#331000
b1011 +
b1011 2
b1011 s
#332000
b1100 +
b1100 2
b1100 s
#333000
b1101 +
b1101 2
b1101 s
#334000
b1110 +
b1110 2
b1110 s
#335000
b1111 +
b1111 2
b1111 s
#336000
1'"
1$"
b110 $
b110 ;
b110 m
b1 w
1{
b110 7
b110 n
b110 x
0}
1~
1|
1G
1H
1z
1D
b1010 f
b101 <
b101 @
b101 g
b101 v
b101 8
b101 h
b101 t
b101 *
b101 0
b101 p
b101 r
b0 +
b0 2
b0 s
#336001
b110 9"
#337000
b1 +
b1 2
b1 s
#338000
b10 +
b10 2
b10 s
#339000
b11 +
b11 2
b11 s
#340000
b100 +
b100 2
b100 s
#341000
b101 +
b101 2
b101 s
#342000
b110 +
b110 2
b110 s
#343000
b111 +
b111 2
b111 s
#344000
b1000 +
b1000 2
b1000 s
#345000
b1001 +
b1001 2
b1001 s
#346000
b1010 +
b1010 2
b1010 s
#347000
b1011 +
b1011 2
b1011 s
#348000
b1100 +
b1100 2
b1100 s
#349000
b1101 +
b1101 2
b1101 s
#350000
b1110 +
b1110 2
b1110 s
#351000
b1111 +
b1111 2
b1111 s
#352000
0"
06"
04"
0-"
1/"
00"
0$"
0,"
0{
b111 $
b111 ;
b111 m
b0 w
0%"
1}
0~
b111 7
b111 n
b111 x
1'"
0("
0|
1&"
1P
1Q
0G
0H
0z
1#"
1M
0D
b1001 f
b110 <
b110 @
b110 g
b110 v
b110 8
b110 h
b110 t
b110 *
b110 0
b110 p
b110 r
b0 +
b0 2
b0 s
#352001
b111 9"
#353000
b1 +
b1 2
b1 s
#354000
b10 +
b10 2
b10 s
#355000
b11 +
b11 2
b11 s
#356000
b100 +
b100 2
b100 s
#357000
b101 +
b101 2
b101 s
#358000
b110 +
b110 2
b110 s
#359000
b111 +
b111 2
b111 s
#360000
b1000 +
b1000 2
b1000 s
#361000
b1001 +
b1001 2
b1001 s
#362000
b1010 +
b1010 2
b1010 s
#363000
b1011 +
b1011 2
b1011 s
#364000
b1100 +
b1100 2
b1100 s
#365000
b1101 +
b1101 2
b1101 s
#366000
b1110 +
b1110 2
b1110 s
#367000
b1111 +
b1111 2
b1111 s
#368000
1"
16"
0!
14"
1-"
0/"
10"
1,"
1%"
0'"
1("
1$"
b1000 $
b1000 ;
b1000 m
b111 w
1{
b1000 7
b1000 n
b1000 x
0}
1~
1|
1G
1H
1z
1D
b1000 f
b111 <
b111 @
b111 g
b111 v
b111 8
b111 h
b111 t
b111 *
b111 0
b111 p
b111 r
b0 +
b0 2
b0 s
#368001
1;"
b1000 9"
#369000
b1 +
b1 2
b1 s
#370000
b10 +
b10 2
b10 s
#371000
b11 +
b11 2
b11 s
#372000
b100 +
b100 2
b100 s
#373000
b101 +
b101 2
b101 s
#374000
b110 +
b110 2
b110 s
#375000
b111 +
b111 2
b111 s
#376000
b1000 +
b1000 2
b1000 s
#377000
b1001 +
b1001 2
b1001 s
#378000
b1010 +
b1010 2
b1010 s
#379000
b1011 +
b1011 2
b1011 s
#380000
b1100 +
b1100 2
b1100 s
#381000
b1101 +
b1101 2
b1101 s
#382000
b1110 +
b1110 2
b1110 s
#383000
b1111 +
b1111 2
b1111 s
